{
  "consumer": {
    "name": "recipe_service"
  },
  "provider": {
    "name": "ingredient_service"
  },
  "interactions": [
    {
      "description": "a request for a specific ingredient",
      "providerState": "jv1bzPVHTE",
      "request": {
        "method": "GET",
        "path": "/api/ingredients/jv1bzPVHTE"
      },
      "response": {
        "status": 200,
        "headers": {
        },
        "body": {
          "id": "jv1bzPVHTE",
          "name": "test",
          "net_carbs": 3
        },
        "matchingRules": {
          "$.body.name": {
            "match": "type"
          },
          "$.body.net_carbs": {
            "match": "type"
          }
        }
      }
    },
    {
      "description": "a new ingredient",
      "request": {
        "method": "PUT",
        "path": "/api/ingredients",
        "headers": {
          "Content-Type": "application/json"
        },
        "body": {
          "name": "test2",
          "net_carbs": 3
        }
      },
      "response": {
        "status": 201,
        "headers": {
        },
        "body": {
          "id": "hW1OHaxRw",
          "name": "test2",
          "net_carbs": 3
        },
        "matchingRules": {
          "$.body.id": {
            "match": "type"
          }
        }
      }
    }
  ],
  "metadata": {
    "pactSpecification": {
      "version": "2.0.0"
    }
  }
}